plot
…
Linear Regression

asthma_air1 

## # A tibble: 42 x 16
##    geo_entity_name geo_entity_id asthma_emergenc~ asthma_emergenc~
##    <chr>                   <int>            <dbl>            <dbl>
##  1 Bayside - Litt~           404               28             59.9
##  2 Bedford Stuyve~           203             1184            509  
##  3 Bensonhurst - ~           209               84             61  
##  4 Borough Park              206              246             70.2
##  5 Canarsie - Fla~           208              337            272. 
##  6 Central Harlem~           302              687            644. 
##  7 Chelsea - Clin~           306               51             98.5
##  8 Coney Island -~           210              203            114. 
##  9 Crotona -Tremo~           105             1374            738. 
## 10 Downtown - Hei~           202              246            124. 
## # ... with 32 more rows, and 12 more variables:
## #   asthma_emergency_department_visits_children_5_to_14_yrs_old_number <dbl>,
## #   asthma_emergency_department_visits_children_5_to_14_yrs_old_rate <dbl>,
## #   asthma_hospitalizations_children_0_to_4_yrs_old_number <dbl>,
## #   asthma_hospitalizations_children_0_to_4_yrs_old_rate <dbl>,
## #   asthma_hospitalizations_children_5_to_14_yrs_old_number <dbl>,
## #   asthma_hospitalizations_children_5_to_14_yrs_old_rate <dbl>,
## #   black_carbon_mean <dbl>, fine_particulate_matter_pm2_5_mean <dbl>,
## #   nitric_oxide_no_mean <dbl>, nitrogen_dioxide_no2_mean <dbl>,
…
